%!PS-Adobe-3.0 EPSF-3.0
%%Creator: cairo 1.15.8 (http://cairographics.org)
%%CreationDate: Fri Dec  1 19:06:57 2017
%%Pages: 1
%%DocumentData: Clean7Bit
%%LanguageLevel: 2
%%BoundingBox: 27 28 196 87
%%EndComments
%%BeginProlog
save
50 dict begin
/q { gsave } bind def
/Q { grestore } bind def
/cm { 6 array astore concat } bind def
/w { setlinewidth } bind def
/J { setlinecap } bind def
/j { setlinejoin } bind def
/M { setmiterlimit } bind def
/d { setdash } bind def
/m { moveto } bind def
/l { lineto } bind def
/c { curveto } bind def
/h { closepath } bind def
/re { exch dup neg 3 1 roll 5 3 roll moveto 0 rlineto
      0 exch rlineto 0 rlineto closepath } bind def
/S { stroke } bind def
/f { fill } bind def
/f* { eofill } bind def
/n { newpath } bind def
/W { clip } bind def
/W* { eoclip } bind def
/BT { } bind def
/ET { } bind def
/pdfmark where { pop globaldict /?pdfmark /exec load put }
    { globaldict begin /?pdfmark /pop load def /pdfmark
    /cleartomark load def end } ifelse
/BDC { mark 3 1 roll /BDC pdfmark } bind def
/EMC { mark /EMC pdfmark } bind def
/cairo_store_point { /cairo_point_y exch def /cairo_point_x exch def } def
/Tj { show currentpoint cairo_store_point } bind def
/TJ {
  {
    dup
    type /stringtype eq
    { show } { -0.001 mul 0 cairo_font_matrix dtransform rmoveto } ifelse
  } forall
  currentpoint cairo_store_point
} bind def
/cairo_selectfont { cairo_font_matrix aload pop pop pop 0 0 6 array astore
    cairo_font exch selectfont cairo_point_x cairo_point_y moveto } bind def
/Tf { pop /cairo_font exch def /cairo_font_matrix where
      { pop cairo_selectfont } if } bind def
/Td { matrix translate cairo_font_matrix matrix concatmatrix dup
      /cairo_font_matrix exch def dup 4 get exch 5 get cairo_store_point
      /cairo_font where { pop cairo_selectfont } if } bind def
/Tm { 2 copy 8 2 roll 6 array astore /cairo_font_matrix exch def
      cairo_store_point /cairo_font where { pop cairo_selectfont } if } bind def
/g { setgray } bind def
/rg { setrgbcolor } bind def
/d1 { setcachedevice } bind def
/cairo_flush_ascii85_file { cairo_ascii85_file status { cairo_ascii85_file flushfile } if } def
/cairo_image { image cairo_flush_ascii85_file } def
/cairo_imagemask { imagemask cairo_flush_ascii85_file } def
%%EndProlog
%%BeginSetup
%%EndSetup
%%Page: 1 1
%%BeginPageSetup
%%PageBoundingBox: 27 28 196 87
%%EndPageSetup
q 27 28 169 59 rectclip
1 0 0 -1 0 105 cm q
0.137255 0.121569 0.12549 rg
45.52 36.152 9.047 9.004 re f
45.586 54.199 9.078 22.555 re f
36.574 18.145 m 27.434 18.145 l 27.434 76.75 l 36.574 76.75 l 36.574 27.109
 l 54.527 27.109 l 54.527 18.145 l h
36.574 18.145 m f
0.129412 0.113725 0.113725 rg
73.051 36.348 m 84.051 36.348 l 84.051 39.68 l 76.664 39.68 l 76.664 43.016
 l 83.496 43.016 l 83.496 46.352 l 76.664 46.352 l 76.664 52.742 l 73.051
 52.742 l h
73.051 36.348 m f
Q q
0.25 0.5 221.094 103.039 re W n
q
0 0 222 104 re W n
  q
0.129412 0.113725 0.113725 rg
91.648 47.809 m 91.383 47.809 91.055 47.82 90.664 47.844 c 90.27 47.867
 89.891 47.934 89.527 48.039 c 89.164 48.148 88.855 48.312 88.602 48.527
 c 88.348 48.742 88.219 49.043 88.219 49.43 c 88.219 49.848 88.398 50.156
 88.754 50.355 c 89.105 50.559 89.477 50.656 89.863 50.656 c 90.203 50.656
 90.531 50.613 90.848 50.52 c 91.164 50.426 91.445 50.293 91.691 50.125 
c 91.941 49.953 92.137 49.738 92.285 49.477 c 92.43 49.215 92.504 48.906
 92.504 48.551 c 92.504 47.809 l h
92.504 51.328 m 92.457 51.328 l 92.07 51.93 91.559 52.363 90.918 52.625
 c 90.277 52.887 89.602 53.02 88.891 53.02 c 88.367 53.02 87.859 52.945 
87.375 52.797 c 86.891 52.652 86.461 52.434 86.09 52.141 c 85.719 51.844
 85.426 51.484 85.211 51.051 c 84.992 50.621 84.887 50.117 84.887 49.547
 c 84.887 48.898 85.004 48.348 85.246 47.902 c 85.484 47.453 85.809 47.082
 86.219 46.789 c 86.625 46.496 87.094 46.27 87.617 46.109 c 88.141 45.945
 88.688 45.824 89.25 45.746 c 89.812 45.672 90.375 45.625 90.941 45.609 
c 91.504 45.594 92.023 45.586 92.504 45.586 c 92.504 44.969 92.285 44.477
 91.844 44.117 c 91.402 43.754 90.883 43.574 90.281 43.574 c 89.707 43.574
 89.188 43.691 88.719 43.93 c 88.246 44.168 87.828 44.496 87.457 44.914 
c 85.602 43.016 l 86.25 42.414 87.008 41.961 87.871 41.66 c 88.738 41.359
 89.633 41.211 90.559 41.211 c 91.578 41.211 92.414 41.336 93.07 41.59 c
 93.727 41.848 94.25 42.223 94.645 42.715 c 95.039 43.207 95.312 43.816 
95.469 44.535 c 95.621 45.25 95.699 46.082 95.699 47.023 c 95.699 52.742
 l 92.504 52.742 l h
92.504 51.328 m f
105.527 45.121 m 105.359 44.879 105.121 44.672 104.812 44.508 c 104.5 44.348
 104.168 44.266 103.812 44.266 c 102.934 44.266 102.25 44.527 101.766 45.055
 c 101.281 45.578 101.035 46.266 101.035 47.113 c 101.035 47.965 101.281
 48.648 101.766 49.176 c 102.25 49.699 102.934 49.965 103.812 49.965 c 104.199
 49.965 104.531 49.879 104.812 49.707 c 105.09 49.539 105.328 49.336 105.527
 49.105 c 107.82 51.516 l 107.281 52.07 106.645 52.461 105.91 52.684 c 105.176
 52.906 104.477 53.02 103.812 53.02 c 102.949 53.02 102.137 52.883 101.371
 52.602 c 100.609 52.324 99.945 51.93 99.379 51.41 c 98.816 50.895 98.371
 50.273 98.051 49.547 c 97.727 48.82 97.562 48.012 97.562 47.113 c 97.562
 46.219 97.727 45.41 98.051 44.684 c 98.371 43.957 98.816 43.336 99.379 
42.82 c 99.945 42.305 100.609 41.902 101.371 41.629 c 102.137 41.348 102.949
 41.211 103.812 41.211 c 104.477 41.211 105.176 41.32 105.91 41.547 c 106.645
 41.77 107.281 42.16 107.82 42.715 c h
105.527 45.121 m f
119.984 52.742 m 116.652 52.742 l 116.652 51.215 l 116.605 51.215 l 116.48
 51.43 116.324 51.645 116.129 51.859 c 115.938 52.078 115.703 52.27 115.426
 52.441 c 115.148 52.609 114.828 52.75 114.477 52.855 c 114.121 52.965 113.734
 53.02 113.316 53.02 c 112.438 53.02 111.723 52.883 111.176 52.613 c 110.629
 52.344 110.203 51.969 109.902 51.492 c 109.602 51.012 109.398 50.449 109.301
 49.801 c 109.199 49.152 109.148 48.449 109.148 47.691 c 109.148 41.488 
l 112.621 41.488 l 112.621 47 l 112.621 47.324 112.633 47.66 112.656 48.008
 c 112.68 48.352 112.75 48.676 112.867 48.969 c 112.98 49.262 113.16 49.5
 113.398 49.684 c 113.637 49.871 113.98 49.965 114.43 49.965 c 114.875 49.965
 115.238 49.883 115.516 49.719 c 115.797 49.559 116.008 49.344 116.156 49.07
 c 116.301 48.801 116.398 48.496 116.445 48.156 c 116.488 47.816 116.512
 47.461 116.512 47.094 c 116.512 41.488 l 119.984 41.488 l h
119.984 52.742 m f
122.59 35.234 3.473 17.508 re f
136.418 44.266 m 133.363 44.266 l 133.363 48.016 l 133.363 48.328 133.379
 48.609 133.41 48.863 c 133.441 49.117 133.508 49.336 133.617 49.523 c 133.727
 49.707 133.891 49.852 134.117 49.953 c 134.34 50.051 134.637 50.102 135.008
 50.102 c 135.191 50.102 135.434 50.082 135.734 50.043 c 136.039 50.004 
136.266 49.918 136.418 49.777 c 136.418 52.672 l 136.035 52.812 135.633 
52.902 135.215 52.949 c 134.797 52.996 134.391 53.02 133.988 53.02 c 133.402
 53.02 132.859 52.957 132.367 52.832 c 131.875 52.711 131.441 52.512 131.07
 52.242 c 130.699 51.973 130.41 51.621 130.203 51.191 c 129.992 50.758 129.891
 50.234 129.891 49.617 c 129.891 44.266 l 127.668 44.266 l 127.668 41.488
 l 129.891 41.488 l 129.891 38.152 l 133.363 38.152 l 133.363 41.488 l 136.418
 41.488 l h
136.418 44.266 m f
144.531 47.809 m 144.27 47.809 143.941 47.82 143.547 47.844 c 143.152 47.867
 142.773 47.934 142.41 48.039 c 142.051 48.148 141.742 48.312 141.484 48.527
 c 141.23 48.742 141.105 49.043 141.105 49.43 c 141.105 49.848 141.281 50.156
 141.637 50.355 c 141.992 50.559 142.363 50.656 142.746 50.656 c 143.086
 50.656 143.414 50.613 143.73 50.52 c 144.047 50.426 144.328 50.293 144.578
 50.125 c 144.824 49.953 145.02 49.738 145.168 49.477 c 145.312 49.215 145.387
 48.906 145.387 48.551 c 145.387 47.809 l h
145.387 51.328 m 145.34 51.328 l 144.953 51.93 144.441 52.363 143.801 52.625
 c 143.16 52.887 142.484 53.02 141.773 53.02 c 141.25 53.02 140.746 52.945
 140.258 52.797 c 139.773 52.652 139.344 52.434 138.973 52.141 c 138.602
 51.844 138.309 51.484 138.094 51.051 c 137.879 50.621 137.77 50.117 137.77
 49.547 c 137.77 48.898 137.887 48.348 138.129 47.902 c 138.367 47.453 138.691
 47.082 139.102 46.789 c 139.512 46.496 139.977 46.27 140.5 46.109 c 141.027
 45.945 141.57 45.824 142.133 45.746 c 142.695 45.672 143.262 45.625 143.824
 45.609 c 144.387 45.594 144.91 45.586 145.387 45.586 c 145.387 44.969 145.168
 44.477 144.727 44.117 c 144.289 43.754 143.766 43.574 143.164 43.574 c 
142.594 43.574 142.07 43.691 141.602 43.93 c 141.129 44.168 140.711 44.496
 140.34 44.914 c 138.488 43.016 l 139.137 42.414 139.891 41.961 140.758 
41.66 c 141.621 41.359 142.516 41.211 143.441 41.211 c 144.461 41.211 145.301
 41.336 145.953 41.59 c 146.609 41.848 147.137 42.223 147.531 42.715 c 147.922
 43.207 148.195 43.816 148.352 44.535 c 148.504 45.25 148.582 46.082 148.582
 47.023 c 148.582 52.742 l 145.387 52.742 l h
145.387 51.328 m f
159.488 47.113 m 159.488 46.266 159.246 45.578 158.762 45.055 c 158.273
 44.527 157.59 44.266 156.711 44.266 c 155.828 44.266 155.148 44.527 154.66
 45.055 c 154.176 45.578 153.934 46.266 153.934 47.113 c 153.934 47.965 
154.176 48.648 154.66 49.176 c 155.148 49.699 155.828 49.965 156.711 49.965
 c 157.59 49.965 158.273 49.699 158.762 49.176 c 159.246 48.648 159.488 
47.965 159.488 47.113 c 162.684 52.742 m 159.488 52.742 l 159.488 51.258
 l 159.441 51.258 l 159.305 51.461 159.121 51.664 158.898 51.875 c 158.676
 52.082 158.41 52.27 158.109 52.441 c 157.809 52.609 157.477 52.75 157.117
 52.855 c 156.754 52.965 156.379 53.02 155.992 53.02 c 155.16 53.02 154.402
 52.875 153.723 52.59 c 153.043 52.305 152.461 51.902 151.973 51.387 c 151.488
 50.871 151.113 50.258 150.852 49.547 c 150.59 48.836 150.457 48.055 150.457
 47.207 c 150.457 46.422 150.578 45.668 150.816 44.949 c 151.055 44.23 151.395
 43.594 151.836 43.039 c 152.277 42.484 152.812 42.039 153.445 41.707 c 
154.078 41.375 154.797 41.211 155.598 41.211 c 156.324 41.211 157 41.32 
157.625 41.547 c 158.25 41.77 158.762 42.152 159.164 42.691 c 159.211 42.691
 l 159.211 35.234 l 162.684 35.234 l h
162.684 52.742 m f
179.195 47.113 m 179.195 46.266 178.949 45.578 178.465 45.055 c 177.977
 44.527 177.293 44.266 176.414 44.266 c 175.535 44.266 174.852 44.527 174.367
 45.055 c 173.879 45.578 173.637 46.266 173.637 47.113 c 173.637 47.965 
173.879 48.648 174.367 49.176 c 174.852 49.699 175.535 49.965 176.414 49.965
 c 177.293 49.965 177.977 49.699 178.465 49.176 c 178.949 48.648 179.195
 47.965 179.195 47.113 c 182.391 52.742 m 179.195 52.742 l 179.195 51.258
 l 179.148 51.258 l 179.008 51.461 178.828 51.664 178.602 51.875 c 178.379
 52.082 178.117 52.27 177.816 52.441 c 177.516 52.609 177.184 52.75 176.82
 52.855 c 176.457 52.965 176.082 53.02 175.695 53.02 c 174.863 53.02 174.105
 52.875 173.426 52.59 c 172.75 52.305 172.168 51.902 171.68 51.387 c 171.195
 50.871 170.82 50.258 170.555 49.547 c 170.293 48.836 170.164 48.055 170.164
 47.207 c 170.164 46.422 170.281 45.668 170.523 44.949 c 170.762 44.23 171.102
 43.594 171.543 43.039 c 171.98 42.484 172.516 42.039 173.148 41.707 c 173.781
 41.375 174.5 41.211 175.305 41.211 c 176.027 41.211 176.703 41.32 177.328
 41.547 c 177.953 41.77 178.469 42.152 178.871 42.691 c 178.918 42.691 l
 178.918 35.234 l 182.391 35.234 l h
182.391 52.742 m f
191.719 45.84 m 191.734 45.254 191.543 44.754 191.141 44.336 c 190.738 
43.918 190.223 43.711 189.59 43.711 c 189.203 43.711 188.863 43.773 188.57
 43.898 c 188.277 44.02 188.027 44.176 187.82 44.371 c 187.609 44.566 187.449
 44.785 187.332 45.043 c 187.215 45.297 187.148 45.562 187.137 45.84 c h
194.66 50.797 m 194.105 51.504 193.402 52.055 192.555 52.441 c 191.707 
52.824 190.824 53.02 189.914 53.02 c 189.051 53.02 188.234 52.879 187.473
 52.602 c 186.707 52.324 186.043 51.926 185.48 51.41 c 184.918 50.895 184.473
 50.273 184.148 49.547 c 183.824 48.82 183.664 48.008 183.664 47.113 c 183.664
 46.219 183.824 45.41 184.148 44.684 c 184.473 43.957 184.918 43.336 185.48
 42.82 c 186.043 42.301 186.707 41.902 187.473 41.625 c 188.234 41.348 189.051
 41.211 189.914 41.211 c 190.715 41.211 191.445 41.348 192.102 41.625 c 
192.758 41.902 193.312 42.301 193.77 42.82 c 194.227 43.336 194.574 43.957
 194.824 44.684 c 195.07 45.41 195.195 46.219 195.195 47.113 c 195.195 48.203
 l 187.137 48.203 l 187.273 48.867 187.574 49.395 188.039 49.789 c 188.504
 50.184 189.074 50.379 189.754 50.379 c 190.324 50.379 190.805 50.254 191.199
 49.996 c 191.594 49.742 191.938 49.414 192.23 49.016 c h
194.66 50.797 m f
72.867 60.328 3.609 16.398 re f
79.375 65.469 m 82.711 65.469 l 82.711 67 l 82.754 67 l 82.863 66.781 83.016
 66.566 83.219 66.348 c 83.418 66.133 83.66 65.941 83.938 65.773 c 84.215
 65.602 84.531 65.461 84.887 65.355 c 85.242 65.246 85.625 65.191 86.043
 65.191 c 86.922 65.191 87.633 65.328 88.172 65.598 c 88.715 65.867 89.133
 66.242 89.438 66.719 c 89.738 67.199 89.941 67.762 90.051 68.41 c 90.156
 69.059 90.211 69.762 90.211 70.52 c 90.211 76.723 l 86.738 76.723 l 86.738
 71.211 l 86.738 70.887 86.727 70.551 86.703 70.203 c 86.68 69.859 86.609
 69.539 86.496 69.242 c 86.379 68.953 86.203 68.711 85.961 68.527 c 85.723
 68.34 85.379 68.25 84.934 68.25 c 84.484 68.25 84.121 68.328 83.844 68.492
 c 83.566 68.656 83.352 68.871 83.207 69.141 c 83.059 69.41 82.965 69.715
 82.918 70.055 c 82.871 70.395 82.848 70.75 82.848 71.121 c 82.848 76.723
 l 79.375 76.723 l h
79.375 65.469 m f
93.816 68.25 m 91.523 68.25 l 91.523 65.473 l 93.816 65.473 l 93.816 63.477
 l 93.816 62.859 93.871 62.277 93.98 61.73 c 94.086 61.184 94.297 60.699
 94.605 60.281 c 94.914 59.867 95.355 59.539 95.934 59.301 c 96.516 59.062
 97.273 58.941 98.215 58.941 c 98.57 58.941 98.918 58.953 99.258 58.984 
c 99.598 59.02 99.93 59.07 100.254 59.148 c 100.09 62.09 l 99.891 62.012
 99.707 61.953 99.535 61.914 c 99.367 61.875 99.172 61.859 98.957 61.859
 c 98.402 61.859 97.984 61.977 97.707 62.219 c 97.43 62.457 97.289 62.945
 97.289 63.688 c 97.289 65.473 l 99.859 65.473 l 99.859 68.25 l 97.289 68.25
 l 97.289 76.727 l 93.816 76.727 l h
93.816 68.25 m f
104.242 71.098 m 104.242 71.945 104.484 72.633 104.973 73.16 c 105.457 
73.684 106.141 73.945 107.023 73.945 c 107.902 73.945 108.586 73.684 109.07
 73.16 c 109.559 72.633 109.801 71.945 109.801 71.098 c 109.801 70.246 109.559
 69.562 109.07 69.035 c 108.586 68.512 107.902 68.25 107.023 68.25 c 106.141
 68.25 105.457 68.512 104.973 69.035 c 104.484 69.562 104.242 70.246 104.242
 71.098 c 100.77 71.098 m 100.77 70.203 100.934 69.391 101.258 68.664 c 
101.582 67.941 102.023 67.32 102.586 66.801 c 103.152 66.285 103.816 65.887
 104.578 65.609 c 105.344 65.332 106.156 65.191 107.023 65.191 c 107.887
 65.191 108.699 65.332 109.465 65.609 c 110.23 65.887 110.891 66.285 111.457
 66.801 c 112.02 67.32 112.465 67.941 112.789 68.664 c 113.113 69.391 113.273
 70.203 113.273 71.098 c 113.273 71.992 113.113 72.801 112.789 73.527 c 
112.465 74.254 112.02 74.875 111.457 75.395 c 110.891 75.91 110.23 76.309
 109.465 76.586 c 108.699 76.863 107.887 77 107.023 77 c 106.156 77 105.344
 76.863 104.578 76.586 c 103.816 76.309 103.152 75.91 102.586 75.395 c 102.023
 74.875 101.582 74.254 101.258 73.527 c 100.934 72.801 100.77 71.992 100.77
 71.098 c f
115.324 65.469 m 118.797 65.469 l 118.797 67.277 l 118.844 67.277 l 119.215
 66.582 119.656 66.062 120.164 65.715 c 120.672 65.367 121.312 65.191 122.086
 65.191 c 122.289 65.191 122.488 65.199 122.688 65.215 c 122.891 65.23 123.074
 65.262 123.246 65.309 c 123.246 68.48 l 122.996 68.402 122.754 68.344 122.516
 68.305 c 122.273 68.27 122.023 68.25 121.762 68.25 c 121.098 68.25 120.574
 68.34 120.188 68.527 c 119.801 68.711 119.504 68.973 119.297 69.301 c 119.086
 69.633 118.953 70.031 118.891 70.492 c 118.828 70.957 118.797 71.469 118.797
 72.023 c 118.797 76.723 l 115.324 76.723 l h
115.324 65.469 m f
124.684 65.469 m 128.02 65.469 l 128.02 67 l 128.066 67 l 128.172 66.781
 128.328 66.566 128.527 66.348 c 128.73 66.133 128.969 65.941 129.246 65.773
 c 129.523 65.602 129.84 65.461 130.195 65.355 c 130.551 65.246 130.938 
65.191 131.352 65.191 c 132.141 65.191 132.84 65.355 133.449 65.68 c 134.059
 66.004 134.52 66.512 134.828 67.207 c 135.227 66.48 135.715 65.965 136.285
 65.656 c 136.855 65.348 137.559 65.191 138.391 65.191 c 139.148 65.191 
139.785 65.32 140.305 65.574 c 140.82 65.828 141.23 66.176 141.531 66.617
 c 141.832 67.055 142.047 67.574 142.18 68.168 c 142.309 68.762 142.375 
69.398 142.375 70.078 c 142.375 76.723 l 138.902 76.723 l 138.902 70.172
 l 138.902 69.648 138.789 69.195 138.566 68.816 c 138.344 68.438 137.945
 68.25 137.375 68.25 c 136.973 68.25 136.637 68.316 136.367 68.445 c 136.098
 68.578 135.879 68.758 135.719 68.992 c 135.555 69.223 135.441 69.492 135.371
 69.801 c 135.301 70.109 135.266 70.434 135.266 70.773 c 135.266 76.723 
l 131.793 76.723 l 131.793 70.773 l 131.793 70.574 131.785 70.324 131.77
 70.031 c 131.754 69.738 131.699 69.461 131.609 69.199 c 131.516 68.938 
131.363 68.711 131.156 68.527 c 130.949 68.34 130.645 68.25 130.242 68.25
 c 129.793 68.25 129.43 68.328 129.152 68.492 c 128.875 68.656 128.664 68.871
 128.516 69.141 c 128.371 69.41 128.273 69.715 128.227 70.055 c 128.18 70.395
 128.16 70.75 128.16 71.121 c 128.16 76.723 l 124.684 76.723 l h
124.684 65.469 m f
151.035 71.789 m 150.773 71.789 150.445 71.805 150.051 71.828 c 149.656
 71.852 149.277 71.914 148.918 72.023 c 148.555 72.133 148.246 72.293 147.988
 72.512 c 147.734 72.727 147.609 73.027 147.609 73.414 c 147.609 73.828 
147.785 74.141 148.141 74.34 c 148.496 74.539 148.867 74.641 149.254 74.641
 c 149.59 74.641 149.922 74.594 150.238 74.5 c 150.551 74.406 150.836 74.277
 151.082 74.105 c 151.328 73.938 151.523 73.723 151.672 73.457 c 151.816
 73.195 151.891 72.887 151.891 72.531 c 151.891 71.789 l h
149.855 60.328 m 154.578 60.328 l 150.57 63.664 l 147.516 63.664 l h
151.891 75.312 m 151.844 75.312 l 151.461 75.914 150.945 76.348 150.305
 76.605 c 149.664 76.871 148.988 77 148.277 77 c 147.754 77 147.25 76.93
 146.762 76.781 c 146.277 76.637 145.848 76.414 145.477 76.121 c 145.105
 75.828 144.812 75.465 144.598 75.031 c 144.383 74.602 144.273 74.102 144.273
 73.527 c 144.273 72.879 144.395 72.332 144.633 71.883 c 144.871 71.438 
145.195 71.066 145.605 70.773 c 146.016 70.48 146.48 70.25 147.008 70.09
 c 147.531 69.93 148.074 69.809 148.637 69.73 c 149.203 69.652 149.766 69.605
 150.328 69.594 c 150.891 69.578 151.414 69.57 151.891 69.57 c 151.891 68.953
 151.672 68.461 151.23 68.098 c 150.793 67.734 150.27 67.555 149.668 67.555
 c 149.098 67.555 148.578 67.676 148.105 67.914 c 147.633 68.152 147.215
 68.48 146.844 68.895 c 144.992 67 l 145.641 66.395 146.395 65.945 147.262
 65.645 c 148.125 65.344 149.02 65.191 149.945 65.191 c 150.965 65.191 151.805
 65.32 152.461 65.574 c 153.113 65.828 153.641 66.203 154.035 66.695 c 154.426
 67.191 154.699 67.797 154.855 68.516 c 155.008 69.23 155.086 70.062 155.086
 71.004 c 155.086 76.727 l 151.891 76.727 l h
151.891 75.312 m f
164.973 68.25 m 161.918 68.25 l 161.918 72 l 161.918 72.309 161.93 72.59
 161.961 72.848 c 161.992 73.102 162.062 73.32 162.168 73.504 c 162.277 
73.691 162.445 73.832 162.668 73.934 c 162.891 74.035 163.188 74.082 163.559
 74.082 c 163.746 74.082 163.988 74.062 164.289 74.027 c 164.59 73.988 164.816
 73.898 164.973 73.762 c 164.973 76.652 l 164.586 76.793 164.184 76.887 
163.77 76.934 c 163.352 76.977 162.941 77 162.543 77 c 161.953 77 161.414
 76.938 160.918 76.816 c 160.426 76.691 159.992 76.496 159.625 76.227 c 
159.254 75.957 158.965 75.605 158.754 75.172 c 158.547 74.738 158.441 74.215
 158.441 73.598 c 158.441 68.25 l 156.219 68.25 l 156.219 65.473 l 158.441
 65.473 l 158.441 62.137 l 161.918 62.137 l 161.918 65.473 l 164.973 65.473
 l h
164.973 68.25 m f
167.043 65.473 m 170.516 65.473 l 170.516 76.727 l 167.043 76.727 l h
166.766 61.93 m 166.766 61.371 166.961 60.895 167.355 60.504 c 167.75 60.109
 168.223 59.914 168.777 59.914 c 169.336 59.914 169.809 60.109 170.203 60.504
 c 170.598 60.895 170.793 61.371 170.793 61.93 c 170.793 62.484 170.598 
62.957 170.203 63.352 c 169.809 63.746 169.336 63.941 168.777 63.941 c 168.223
 63.941 167.75 63.746 167.355 63.352 c 166.961 62.957 166.766 62.484 166.766
 61.93 c f
180.539 69.105 m 180.367 68.859 180.129 68.656 179.82 68.492 c 179.512 
68.332 179.18 68.25 178.824 68.25 c 177.945 68.25 177.262 68.512 176.777
 69.035 c 176.289 69.559 176.047 70.25 176.047 71.098 c 176.047 71.945 176.289
 72.633 176.777 73.16 c 177.262 73.684 177.945 73.945 178.824 73.945 c 179.211
 73.945 179.543 73.859 179.82 73.691 c 180.098 73.52 180.34 73.32 180.539
 73.086 c 182.832 75.496 l 182.289 76.051 181.652 76.441 180.922 76.668 
c 180.188 76.887 179.488 77 178.824 77 c 177.961 77 177.148 76.863 176.383
 76.586 c 175.617 76.309 174.953 75.91 174.391 75.391 c 173.828 74.875 173.383
 74.254 173.059 73.527 c 172.734 72.801 172.574 71.992 172.574 71.098 c 
172.574 70.203 172.734 69.391 173.059 68.668 c 173.383 67.941 173.828 67.32
 174.391 66.801 c 174.953 66.285 175.617 65.887 176.383 65.609 c 177.148
 65.332 177.961 65.191 178.824 65.191 c 179.488 65.191 180.188 65.305 180.922
 65.527 c 181.652 65.75 182.289 66.141 182.832 66.699 c h
180.539 69.105 m f
190.473 71.789 m 190.211 71.789 189.883 71.805 189.488 71.828 c 189.094
 71.852 188.715 71.914 188.355 72.023 c 187.992 72.133 187.684 72.293 187.43
 72.512 c 187.172 72.727 187.047 73.027 187.047 73.414 c 187.047 73.828 
187.223 74.141 187.578 74.34 c 187.934 74.539 188.305 74.641 188.691 74.641
 c 189.027 74.641 189.355 74.594 189.672 74.5 c 189.988 74.406 190.273 74.277
 190.52 74.105 c 190.766 73.938 190.961 73.723 191.109 73.457 c 191.258 
73.195 191.328 72.887 191.328 72.531 c 191.328 71.789 l h
191.328 75.312 m 191.281 75.312 l 190.898 75.914 190.383 76.348 189.742
 76.605 c 189.102 76.871 188.426 77 187.719 77 c 187.191 77 186.688 76.93
 186.199 76.781 c 185.715 76.637 185.285 76.414 184.914 76.121 c 184.547
 75.828 184.25 75.465 184.035 75.031 c 183.82 74.602 183.711 74.102 183.711
 73.527 c 183.711 72.879 183.832 72.332 184.07 71.883 c 184.309 71.438 184.633
 71.066 185.043 70.773 c 185.449 70.48 185.918 70.25 186.441 70.09 c 186.969
 69.93 187.512 69.809 188.074 69.73 c 188.641 69.652 189.203 69.605 189.766
 69.594 c 190.328 69.578 190.852 69.57 191.328 69.57 c 191.328 68.953 191.109
 68.461 190.668 68.098 c 190.23 67.734 189.707 67.555 189.105 67.555 c 188.535
 67.555 188.016 67.676 187.543 67.914 c 187.074 68.152 186.652 68.48 186.281
 68.895 c 184.43 67 l 185.078 66.395 185.832 65.945 186.699 65.645 c 187.562
 65.344 188.457 65.191 189.383 65.191 c 190.402 65.191 191.238 65.32 191.898
 65.574 c 192.551 65.828 193.078 66.203 193.469 66.695 c 193.863 67.191 
194.137 67.797 194.293 68.516 c 194.449 69.23 194.523 70.062 194.523 71.004
 c 194.523 76.727 l 191.328 76.727 l h
191.328 75.312 m f
  Q
Q
Q Q
showpage
%%Trailer
end restore
%%EOF
